// EVENT 0063
Name "Skill: Play 231-240"

ChangeVariable(11,11,0,2,1,5)
If(1,100,0,231,0)
 If(1,11,0,1,0)
  ShowMessageFace("bugstaff_fc1",0,0,2,1)
  ShowMessage("【バグスタッフ】")
  ShowMessage("それで、隣の席の子がね……")
  ShowMessageFace("",0,0,2,2)
  ShowMessage("バグスタッフは談笑している……")
  EndEventProcessing()
  0()
 EndIf()
 If(1,11,0,2,0)
  ShowMessageFace("bugstaff_fc1",0,0,2,3)
  ShowMessage("【バグスタッフ】")
  ShowMessage("ぶーん……")
  ShowMessageFace("",0,0,2,4)
  ShowMessage("バグスタッフは周囲をぶんぶんと飛び回った！")
  ShowMessage("非常にうっとうしい！")
  EndEventProcessing()
  0()
 EndIf()
 If(1,11,0,3,0)
  ShowMessageFace("bugstaff_fc1",0,0,2,5)
  ShowMessage("【バグスタッフ】")
  ShowMessage("えへへっ……")
  355("interrupt_skill(3295)")
  EndEventProcessing()
  0()
 EndIf()
 If(1,11,0,4,0)
  ShowMessageFace("bugstaff_fc1",0,0,2,6)
  ShowMessage("【バグスタッフ】")
  ShowMessage("この子、迷子になってたの。")
  ShowMessage("助けてあげてくれない？")
  250(bytes(0x04,0x08,0x6f,0x3a,0x0c,0x52,0x50,0x47,0x3a,0x3a,0x53,0x45,0x08,0x3a,0x0a,0x40,0x6e,0x61,0x6d,0x65,0x49,0x22,0x0a,0x49,0x74,0x65,0x6d,0x31,0x06,0x3a,0x06,0x45,0x54,0x3a,0x0b,0x40,0x70,0x69,0x74,0x63,0x68,0x69,0x69,0x3a,0x0c,0x40,0x76,0x6f,0x6c,0x75,0x6d,0x65,0x69,0x55))
  ChangeInventory_Item(448,0,0,1)
  ShowMessageFace("",0,0,2,7)
  ShowMessage("「カブトムシ」を手に入れた！")
  EndEventProcessing()
  0()
 EndIf()
 If(1,11,0,5,0)
  ShowMessageFace("bugstaff_fc1",0,0,2,8)
  ShowMessage("【バグスタッフ】")
  ShowMessage("新魔法だよ……ウルトラファイア！")
  355("interrupt_skill(3306)")
  EndEventProcessing()
  0()
 EndIf()
 0()
EndIf()
If(1,100,0,232,0)
 If(1,11,0,1,0)
  ShowMessageFace("magistans_fc1",0,0,2,9)
  ShowMessage("【マギスタンズ】")
  ShowMessage("みんな、がんばれ～！")
  355("interrupt_skill(3300)")
  EndEventProcessing()
  0()
 EndIf()
 If(1,11,0,2,0)
  ShowMessageFace("magistans_fc1",0,0,2,10)
  ShowMessage("【マギスタンズ】")
  ShowMessage("宿題があるのよね……")
  ShowMessageFace("",0,0,2,11)
  ShowMessage("マギスタンズは勉強している……")
  EndEventProcessing()
  0()
 EndIf()
 If(1,11,0,3,0)
  ShowMessageFace("magistans_fc1",0,0,2,12)
  ShowMessage("【マギスタンズ】")
  ShowMessage("私達、最強の魔導師になるんだから！")
  ShowMessageFace("",0,0,2,13)
  ShowMessage("マギスタンズは大胆に宣言した！")
  ShowMessage("しかし誰も聞いていない……")
  EndEventProcessing()
  0()
 EndIf()
 If(1,11,0,4,0)
  ShowMessageFace("magistans_fc1",0,0,2,14)
  ShowMessage("【マギスタンズ】")
  ShowMessage("これ、美味しそうでしょ？")
  ShowMessageFace("",0,0,2,15)
  ShowMessage("マギスタンズからの差し入れだ！")
  250(bytes(0x04,0x08,0x6f,0x3a,0x0c,0x52,0x50,0x47,0x3a,0x3a,0x53,0x45,0x08,0x3a,0x0a,0x40,0x6e,0x61,0x6d,0x65,0x49,0x22,0x0a,0x49,0x74,0x65,0x6d,0x31,0x06,0x3a,0x06,0x45,0x54,0x3a,0x0b,0x40,0x70,0x69,0x74,0x63,0x68,0x69,0x69,0x3a,0x0c,0x40,0x76,0x6f,0x6c,0x75,0x6d,0x65,0x69,0x55))
  ChangeInventory_Item(422,0,0,1)
  ShowMessageFace("",0,0,2,16)
  ShowMessage("「ゼリー」を手に入れた！")
  EndEventProcessing()
  0()
 EndIf()
 If(1,11,0,5,0)
  ShowMessageFace("magistans_fc1",0,0,2,17)
  ShowMessage("【マギスタンズ】")
  ShowMessage("拝啓、故郷のお母さん。")
  ShowMessage("私は、旅に出ています……")
  355("interrupt_skill(3286)")
  EndEventProcessing()
  0()
 EndIf()
 0()
EndIf()
If(1,100,0,233,0)
 If(1,11,0,1,0)
  ShowMessageFace("mefist_fc1",2,0,2,18)
  ShowMessage("【メフィスト】")
  ShowMessage("いいですか、戦いの心構えというのは……")
  ShowMessageFace("",0,0,2,19)
  ShowMessage("メフィストは説教を始めた！")
  ShowMessage("しかし誰も聞いていない……")
  EndEventProcessing()
  0()
 EndIf()
 If(1,11,0,2,0)
  ShowMessageFace("mefist_fc1",0,0,2,20)
  ShowMessage("【メフィスト】")
  ShowMessage("私が編み出した魔法です……スーパーファイア！")
  355("interrupt_skill(3306)")
  EndEventProcessing()
  0()
 EndIf()
 If(1,11,0,3,0)
  ShowMessageFace("mefist_fc1",2,0,2,21)
  ShowMessage("【メフィスト】")
  ShowMessage("まったく、生徒は口答えばかり……")
  ShowMessageFace("",0,0,2,22)
  ShowMessage("メフィストは一人で愚痴を言っている……")
  EndEventProcessing()
  0()
 EndIf()
 If(1,11,0,4,0)
  ShowMessageFace("mefist_fc1",0,0,2,23)
  ShowMessage("【メフィスト】")
  ShowMessage("これをどうぞ、精が付きますよ。")
  ShowMessageFace("",0,0,2,24)
  ShowMessage("メフィストからの差し入れだ！")
  250(bytes(0x04,0x08,0x6f,0x3a,0x0c,0x52,0x50,0x47,0x3a,0x3a,0x53,0x45,0x08,0x3a,0x0a,0x40,0x6e,0x61,0x6d,0x65,0x49,0x22,0x0a,0x49,0x74,0x65,0x6d,0x31,0x06,0x3a,0x06,0x45,0x54,0x3a,0x0b,0x40,0x70,0x69,0x74,0x63,0x68,0x69,0x69,0x3a,0x0c,0x40,0x76,0x6f,0x6c,0x75,0x6d,0x65,0x69,0x55))
  ChangeInventory_Item(328,0,0,1)
  ShowMessageFace("",0,0,2,25)
  ShowMessage("「うなぎ」を手に入れた！")
  EndEventProcessing()
  0()
 EndIf()
 If(1,11,0,5,0)
  ShowMessageFace("mefist_fc1",0,0,2,26)
  ShowMessage("【メフィスト】")
  ShowMessage("私が編み出した究極魔法を使用します……")
  ShowMessage("ウルトラメフィ！")
  ShowMessageFace("",0,0,2,27)
  ShowMessage("メフィストはウルトラメフィを唱えた！")
  ShowMessage("しかし何も起きなかった……")
  EndEventProcessing()
  0()
 EndIf()
 0()
EndIf()
If(1,100,0,234,0)
 If(1,11,0,1,0)
  ShowMessageFace("kamakiri_fc1",0,0,2,28)
  ShowMessage("【マティス】")
  ShowMessage("シャー！")
  355("interrupt_skill(3312)")
  EndEventProcessing()
  0()
 EndIf()
 If(1,11,0,2,0)
  ShowMessageFace("kamakiri_fc1",0,0,2,29)
  ShowMessage("【マティス】")
  ShowMessage("……………………")
  ShowMessageFace("",0,0,2,30)
  ShowMessage("マティスは流し目を送った……")
  ShowMessage("しかし、睨んでいるようにしか見えない！")
  EndEventProcessing()
  0()
 EndIf()
 If(1,11,0,3,0)
  ShowMessageFace("kamakiri_fc1",0,0,2,31)
  ShowMessage("【マティス】")
  ShowMessage("ギギギギ……！！")
  355("interrupt_skill(3292)")
  EndEventProcessing()
  0()
 EndIf()
 If(1,11,0,4,0)
  ShowMessageFace("kamakiri_fc1",1,0,2,32)
  ShowMessage("【マティス】")
  ShowMessage("これ、捕まえた……")
  ShowMessageFace("",0,0,2,33)
  ShowMessage("マティスからの差し入れだ！")
  250(bytes(0x04,0x08,0x6f,0x3a,0x0c,0x52,0x50,0x47,0x3a,0x3a,0x53,0x45,0x08,0x3a,0x0a,0x40,0x6e,0x61,0x6d,0x65,0x49,0x22,0x0a,0x49,0x74,0x65,0x6d,0x31,0x06,0x3a,0x06,0x45,0x54,0x3a,0x0b,0x40,0x70,0x69,0x74,0x63,0x68,0x69,0x69,0x3a,0x0c,0x40,0x76,0x6f,0x6c,0x75,0x6d,0x65,0x69,0x55))
  ChangeInventory_Item(448,0,0,1)
  ShowMessageFace("",0,0,2,34)
  ShowMessage("「カブトムシ」を手に入れた！")
  EndEventProcessing()
  0()
 EndIf()
 If(1,11,0,5,0)
  ShowMessageFace("kamakiri_fc1",1,0,2,35)
  ShowMessage("【マティス】")
  ShowMessage("ギギギ……")
  355("interrupt_skill(3288)")
  EndEventProcessing()
  0()
 EndIf()
 0()
EndIf()
If(1,100,0,235,0)
 If(1,11,0,1,0)
  ShowMessageFace("kaiko_fc1",0,0,2,36)
  ShowMessage("【シルク】")
  ShowMessage("うふふっ……")
  355("interrupt_skill(3296)")
  EndEventProcessing()
  0()
 EndIf()
 If(1,11,0,2,0)
  ShowMessageFace("kaiko_fc1",0,0,2,37)
  ShowMessage("【シルク】")
  ShowMessage("たまには、ゆっくりしたいものね……")
  ShowMessageFace("",0,0,2,38)
  ShowMessage("シルクは編み物をしている……")
  EndEventProcessing()
  0()
 EndIf()
 If(1,11,0,3,0)
  ShowMessageFace("kaiko_fc1",0,0,2,39)
  ShowMessage("【シルク】")
  ShowMessage("私、ふわふわだと思わない……？")
  ShowMessageFace("",0,0,2,40)
  ShowMessage("シルクは誰かに語りかけている……")
  ShowMessage("しかし誰も応じなかった！")
  EndEventProcessing()
  0()
 EndIf()
 If(1,11,0,4,0)
  ShowMessageFace("kaiko_fc1",2,0,2,41)
  ShowMessage("【シルク】")
  ShowMessage("ああ、暇ねぇ……")
  ShowMessageFace("",0,0,2,42)
  ShowMessage("シルクは雑草をむしっている……")
  250(bytes(0x04,0x08,0x6f,0x3a,0x0c,0x52,0x50,0x47,0x3a,0x3a,0x53,0x45,0x08,0x3a,0x0a,0x40,0x6e,0x61,0x6d,0x65,0x49,0x22,0x0a,0x49,0x74,0x65,0x6d,0x31,0x06,0x3a,0x06,0x45,0x54,0x3a,0x0b,0x40,0x70,0x69,0x74,0x63,0x68,0x69,0x69,0x3a,0x0c,0x40,0x76,0x6f,0x6c,0x75,0x6d,0x65,0x69,0x55))
  ChangeInventory_Item(445,0,0,1)
  ShowMessageFace("",0,0,2,43)
  ShowMessage("「雑草」を手に入れた！")
  EndEventProcessing()
  0()
 EndIf()
 If(1,11,0,5,0)
  ShowMessageFace("kaiko_fc1",0,0,2,44)
  ShowMessage("【シルク】")
  ShowMessage("前に拾った不思議な種を……")
  355("interrupt_skill(3299)")
  EndEventProcessing()
  0()
 EndIf()
 0()
EndIf()
If(1,100,0,236,0)
 If(1,11,0,1,0)
  ShowMessageFace("plantwin_fc1",0,0,2,45)
  ShowMessage("【プランツイン】")
  ShowMessage("ゴロゴロしましょう……")
  ShowMessageFace("",0,0,2,46)
  ShowMessage("プランツインは地面に寝そべって日光浴している……")
  EndEventProcessing()
  0()
 EndIf()
 If(1,11,0,2,0)
  ShowMessageFace("plantwin_fc1",0,0,2,47)
  ShowMessage("【プランツイン】")
  ShowMessage("花の芳香を味わいなさい……")
  355("interrupt_skill(2922)")
  EndEventProcessing()
  0()
 EndIf()
 If(1,11,0,3,0)
  ShowMessageFace("plantwin_fc1",0,0,2,48)
  ShowMessage("【プランツイン】")
  ShowMessage("少し休みましょうか……")
  313(0,236,0,11)
  ShowMessageFace("",0,0,2,49)
  ShowMessage("プランツインは居眠りしている……")
  EndEventProcessing()
  0()
 EndIf()
 If(1,11,0,4,0)
  ShowMessageFace("plantwin_fc1",0,0,2,50)
  ShowMessage("【プランツイン】")
  ShowMessage("これ、新鮮な野菜ですよ。")
  ShowMessageFace("",0,0,2,51)
  ShowMessage("プランツインからの差し入れだ！")
  250(bytes(0x04,0x08,0x6f,0x3a,0x0c,0x52,0x50,0x47,0x3a,0x3a,0x53,0x45,0x08,0x3a,0x0a,0x40,0x6e,0x61,0x6d,0x65,0x49,0x22,0x0a,0x49,0x74,0x65,0x6d,0x31,0x06,0x3a,0x06,0x45,0x54,0x3a,0x0b,0x40,0x70,0x69,0x74,0x63,0x68,0x69,0x69,0x3a,0x0c,0x40,0x76,0x6f,0x6c,0x75,0x6d,0x65,0x69,0x55))
  ChangeInventory_Item(307,0,0,1)
  ShowMessageFace("",0,0,2,52)
  ShowMessage("「キャベツ」を手に入れた！")
  EndEventProcessing()
  0()
 EndIf()
 If(1,11,0,5,0)
  ShowMessageFace("plantwin_fc1",0,0,2,53)
  ShowMessage("【プランツイン】")
  ShowMessage("不思議な植物を植えましょう……")
  355("interrupt_skill(3299)")
  EndEventProcessing()
  0()
 EndIf()
 0()
EndIf()
If(1,100,0,237,0)
 If(1,11,0,1,0)
  ShowMessageFace("alplants_fc1",0,0,2,54)
  ShowMessage("【アルプランツ】")
  ShowMessage("お花♪　キノコ～♪")
  ShowMessageFace("",0,0,2,55)
  ShowMessage("アルプランツは皆で歌を歌っている……")
  EndEventProcessing()
  0()
 EndIf()
 If(1,11,0,2,0)
  ShowMessageFace("alplants_fc1",2,0,2,56)
  ShowMessage("【アルプランツ】")
  ShowMessage("ちょっと、何よ～！")
  ShowMessageFace("",0,0,2,57)
  ShowMessage("アルプランツはいがみ合っている……")
  EndEventProcessing()
  0()
 EndIf()
 If(1,11,0,3,0)
  ShowMessageFace("alplants_fc1",0,0,2,58)
  ShowMessage("【アルプランツ】")
  ShowMessage("それで、町にこっそり胞子を撒いて……")
  ShowMessageFace("",0,0,2,59)
  ShowMessage("アルプランツはよからぬ相談をしている……")
  EndEventProcessing()
  0()
 EndIf()
 If(1,11,0,4,0)
  ShowMessageFace("alplants_fc1",0,0,2,60)
  ShowMessage("【アルプランツ】")
  ShowMessage("これ食べて、苗床になってよね！")
  ShowMessageFace("",0,0,2,61)
  ShowMessage("アルプランツからの差し入れだ！")
  250(bytes(0x04,0x08,0x6f,0x3a,0x0c,0x52,0x50,0x47,0x3a,0x3a,0x53,0x45,0x08,0x3a,0x0a,0x40,0x6e,0x61,0x6d,0x65,0x49,0x22,0x0a,0x49,0x74,0x65,0x6d,0x31,0x06,0x3a,0x06,0x45,0x54,0x3a,0x0b,0x40,0x70,0x69,0x74,0x63,0x68,0x69,0x69,0x3a,0x0c,0x40,0x76,0x6f,0x6c,0x75,0x6d,0x65,0x69,0x55))
  ChangeInventory_Item(318,0,0,1)
  ShowMessageFace("",0,0,2,62)
  ShowMessage("「しいたけ」を手に入れた！")
  EndEventProcessing()
  0()
 EndIf()
 If(1,11,0,5,0)
  ShowMessageFace("alplants_fc1",0,0,2,63)
  ShowMessage("【アルプランツ】")
  ShowMessage("とっておきの種、植えちゃうよ！")
  355("interrupt_skill(3299)")
  EndEventProcessing()
  0()
 EndIf()
 0()
EndIf()
If(1,100,0,238,0)
 If(1,11,0,1,0)
  ShowMessageFace("dorothy_fc1",0,0,2,64)
  ShowMessage("【ドローシー】")
  ShowMessage("お腹が減ったわ……")
  ShowMessage("たまには人が食べたいわね……")
  ShowMessageFace("",0,0,2,65)
  ShowMessage("ドローシーは一人で愚痴を言っている……")
  EndEventProcessing()
  0()
 EndIf()
 If(1,11,0,2,0)
  ShowMessageFace("dorothy_fc1",0,0,2,66)
  ShowMessage("【ドローシー】")
  ShowMessage("たまには、光合成しないとね……")
  ShowMessageFace("",0,0,2,67)
  ShowMessage("ドローシーは地面に寝そべって日光浴している……")
  EndEventProcessing()
  0()
 EndIf()
 If(1,11,0,3,0)
  ShowMessageFace("dorothy_fc1",0,0,2,68)
  ShowMessage("【ドローシー】")
  ShowMessage("こんなの、やってられないわ！")
  ShowMessageFace("",0,0,2,69)
  ShowMessage("ドローシーは逃げ出した！")
  ShowMessage("しかし道が分からず、すぐ戻ってきた……")
  EndEventProcessing()
  0()
 EndIf()
 If(1,11,0,4,0)
  ShowMessageFace("dorothy_fc1",0,0,2,70)
  ShowMessage("【ドローシー】")
  ShowMessage("これ、食べなさい……")
  ShowMessageFace("",0,0,2,71)
  ShowMessage("ドローシーからの差し入れだ！")
  250(bytes(0x04,0x08,0x6f,0x3a,0x0c,0x52,0x50,0x47,0x3a,0x3a,0x53,0x45,0x08,0x3a,0x0a,0x40,0x6e,0x61,0x6d,0x65,0x49,0x22,0x0a,0x49,0x74,0x65,0x6d,0x31,0x06,0x3a,0x06,0x45,0x54,0x3a,0x0b,0x40,0x70,0x69,0x74,0x63,0x68,0x69,0x69,0x3a,0x0c,0x40,0x76,0x6f,0x6c,0x75,0x6d,0x65,0x69,0x55))
  ChangeInventory_Item(302,0,0,1)
  ShowMessageFace("",0,0,2,72)
  ShowMessage("「みかん」を手に入れた！")
  EndEventProcessing()
  0()
 EndIf()
 If(1,11,0,5,0)
  ShowMessageFace("dorothy_fc1",0,0,2,73)
  ShowMessage("【ドローシー】")
  ShowMessage("消化液で溶かしてあげるわ……")
  355("interrupt_skill(2646)")
  EndEventProcessing()
  0()
 EndIf()
 0()
EndIf()
If(1,100,0,239,0)
 If(1,11,0,1,0)
  ShowMessageFace("rafi_fc1",0,0,2,74)
  ShowMessage("【ラフィ】")
  ShowMessage("甘い芳香で恍惚に浸るのです……")
  355("interrupt_skill(2921)")
  EndEventProcessing()
  0()
 EndIf()
 If(1,11,0,2,0)
  ShowMessageFace("rafi_fc1",0,0,2,75)
  ShowMessage("【ラフィ】")
  ShowMessage("うふふふっ……")
  ShowMessageFace("",0,0,2,76)
  ShowMessage("ラフィはくすくす笑っている……")
  EndEventProcessing()
  0()
 EndIf()
 If(1,11,0,3,0)
  ShowMessageFace("rafi_fc1",1,0,2,77)
  ShowMessage("【ラフィ】")
  ShowMessage("ああ、うっかり自分の芳香を吸い込んで……")
  313(0,239,0,25)
  ShowMessageFace("",0,0,2,78)
  ShowMessage("ラフィは恍惚に浸ってしまった……")
  EndEventProcessing()
  0()
 EndIf()
 If(1,11,0,4,0)
  ShowMessageFace("rafi_fc1",0,0,2,79)
  ShowMessage("【ラフィ】")
  ShowMessage("これをどうぞ、溶け残りです……")
  ShowMessageFace("",0,0,2,80)
  ShowMessage("ラフィからの差し入れだ！")
  250(bytes(0x04,0x08,0x6f,0x3a,0x0c,0x52,0x50,0x47,0x3a,0x3a,0x53,0x45,0x08,0x3a,0x0a,0x40,0x6e,0x61,0x6d,0x65,0x49,0x22,0x0a,0x49,0x74,0x65,0x6d,0x31,0x06,0x3a,0x06,0x45,0x54,0x3a,0x0b,0x40,0x70,0x69,0x74,0x63,0x68,0x69,0x69,0x3a,0x0c,0x40,0x76,0x6f,0x6c,0x75,0x6d,0x65,0x69,0x55))
  ChangeInventory_Item(444,0,0,1)
  ShowMessageFace("",0,0,2,81)
  ShowMessage("「ドクロ」を手に入れた！")
  EndEventProcessing()
  0()
 EndIf()
 If(1,11,0,5,0)
  ShowMessageFace("rafi_fc1",0,0,2,82)
  ShowMessage("【ラフィ】")
  ShowMessage("さあ、溶けてしまいなさい……")
  355("interrupt_skill(2646)")
  EndEventProcessing()
  0()
 EndIf()
 0()
EndIf()
If(1,100,0,240,0)
 If(1,11,0,1,0)
  ShowMessageFace("dina_fc1",0,0,2,83)
  ShowMessage("【ディーナ】")
  ShowMessage("退屈ね……")
  ShowMessageFace("",0,0,2,84)
  ShowMessage("ディーナはぼんやりしている……")
  EndEventProcessing()
  0()
 EndIf()
 If(1,11,0,2,0)
  ShowMessageFace("dina_fc1",0,0,2,85)
  ShowMessage("【ディーナ】")
  ShowMessage("妹たちの野蛮さにも困ったものね……")
  ShowMessageFace("",0,0,2,86)
  ShowMessage("ディーナは一人で愚痴を言っている……")
  EndEventProcessing()
  0()
 EndIf()
 If(1,11,0,3,0)
  ShowMessageFace("dina_fc1",0,0,2,87)
  ShowMessage("【ディーナ】")
  ShowMessage("ふん、せいぜい頑張りなさい……")
  ShowMessageFace("",0,0,2,88)
  ShowMessage("ディーナはみんなを応援した！")
  ShowMessage("しかし誰も聞いていない……")
  EndEventProcessing()
  0()
 EndIf()
 If(1,11,0,4,0)
  ShowMessageFace("dina_fc1",0,0,2,89)
  ShowMessage("【ディーナ】")
  ShowMessage("ほら、これを食べなさい……")
  ShowMessageFace("",0,0,2,90)
  ShowMessage("ディーナからの差し入れだ！")
  250(bytes(0x04,0x08,0x6f,0x3a,0x0c,0x52,0x50,0x47,0x3a,0x3a,0x53,0x45,0x08,0x3a,0x0a,0x40,0x6e,0x61,0x6d,0x65,0x49,0x22,0x0a,0x49,0x74,0x65,0x6d,0x31,0x06,0x3a,0x06,0x45,0x54,0x3a,0x0b,0x40,0x70,0x69,0x74,0x63,0x68,0x69,0x69,0x3a,0x0c,0x40,0x76,0x6f,0x6c,0x75,0x6d,0x65,0x69,0x55))
  ChangeInventory_Item(329,0,0,1)
  ShowMessageFace("",0,0,2,91)
  ShowMessage("「肉」を手に入れた！")
  EndEventProcessing()
  0()
 EndIf()
 If(1,11,0,5,0)
  ShowMessageFace("dina_fc1",0,0,2,92)
  ShowMessage("【ディーナ】")
  ShowMessage("消化液を浴びなさい……")
  355("interrupt_skill(2646)")
  EndEventProcessing()
  0()
 EndIf()
 0()
EndIf()
0()
